{"page":"1","per_page":15,"pages":50,"total":750,"shots":[{"id":2236216,"title":"Tiger","description":null,"height":600,"width":800,"likes_count":289,"comments_count":13,"rebounds_count":0,"url":"http://dribbble.com/shots/2236216-Tiger","short_url":"http://drbl.in/pVai","views_count":1685,"rebound_source_id":null,"image_url":"https://d13yacurqjgara.cloudfront.net/users/288987/screenshots/2236216/tiger03.jpg","image_teaser_url":"https://d13yacurqjgara.cloudfront.net/users/288987/screenshots/2236216/tiger03_teaser.jpg","image_400_url":"https://d13yacurqjgara.cloudfront.net/users/288987/screenshots/2236216/tiger03_1x.jpg","player":{"id":288987,"name":"Jona Dinges","location":"Germany","followers_count":4953,"draftees_count":4,"likes_count":4786,"likes_received_count":21769,"comments_count":212,"comments_received_count":1230,"rebounds_count":1,"rebounds_received_count":3,"url":"http://dribbble.com/jonadinges","avatar_url":"https://d13yacurqjgara.cloudfront.net/users/288987/avatars/normal/bdb5dd002d1cc634c4effe6780a85a18.jpg?1438882315","username":"jonadinges","twitter_screen_name":"jonadinges","website_url":"http://instagram.com/jonadinges","drafted_by_player_id":29662,"shots_count":47,"following_count":814,"created_at":"2013/02/26 08:19:34 -0500"},"created_at":"2015/09/09 09:21:19 -0400"},{"id":2236132,"title":"Drunk Waiter","description":"\u003cp\u003eA quick character test.\u003c/p\u003e","height":300,"width":400,"likes_count":205,"comments_count":6,"rebounds_count":0,"url":"http://dribbble.com/shots/2236132-Drunk-Waiter","short_url":"http://drbl.in/pUYC","views_count":1933,"rebound_source_id":null,"image_url":"https://d13yacurqjgara.cloudfront.net/users/31664/screenshots/2236132/drunk-waiter.gif","image_teaser_url":"https://d13yacurqjgara.cloudfront.net/users/31664/screenshots/2236132/drunk-waiter_teaser.gif","player":{"id":31664,"name":"Fraser Davidson","location":"London, UK","followers_count":22334,"draftees_count":21,"likes_count":412,"likes_received_count":155710,"comments_count":545,"comments_received_count":9580,"rebounds_count":12,"rebounds_received_count":98,"url":"http://dribbble.com/fraserdavidson","avatar_url":"https://d13yacurqjgara.cloudfront.net/users/31664/avatars/normal/FD.PNG?1404305056","username":"fraserdavidson","twitter_screen_name":"frazdav","website_url":"http://www.cubstudio.com","drafted_by_player_id":13865,"shots_count":964,"following_count":439,"created_at":"2011/04/30 09:35:03 -0400"},"created_at":"2015/09/09 08:37:36 -0400"},{"id":2235738,"title":"Caribbean Pirates  ","description":"\u003cp\u003eAhoy!\n\u003cbr /\u003eBecause everybody likes pirates! Ahrrr, dribbblers! \u003c/p\u003e\n\n\u003cp\u003eWorth checking out:\n\u003cbr /\u003e\u003ca href=\"http://bit.ly/1yN60ko\" rel=\"nofollow\"\u003e Icon Utopia\u003c/a\u003e | \u003ca href=\"http://bit.ly/1EZu9py\" rel=\"nofollow\"\u003e Icon Shop\u003c/a\u003e | \u003ca href=\"https://www.pinterest.com/JustasDesign/\" rel=\"nofollow\"\u003e Pinterest\u003c/a\u003e | \u003ca href=\"https://instagram.com/iconutopia/\" rel=\"nofollow\"\u003e Instagram \u003c/a\u003e\u003c/p\u003e","height":600,"width":800,"likes_count":205,"comments_count":8,"rebounds_count":1,"url":"http://dribbble.com/shots/2235738-Caribbean-Pirates","short_url":"http://drbl.in/pUQY","views_count":1362,"rebound_source_id":2204387,"image_url":"https://d13yacurqjgara.cloudfront.net/users/146798/screenshots/2235738/pirates2-01.png","image_teaser_url":"https://d13yacurqjgara.cloudfront.net/users/146798/screenshots/2235738/pirates2-01_teaser.png","image_400_url":"https://d13yacurqjgara.cloudfront.net/users/146798/screenshots/2235738/pirates2-01_1x.png","player":{"id":146798,"name":"Justas Galaburda","location":"Lithuania","followers_count":4201,"draftees_count":1,"likes_count":15293,"likes_received_count":30731,"comments_count":887,"comments_received_count":1592,"rebounds_count":165,"rebounds_received_count":167,"url":"http://dribbble.com/jucha","avatar_url":"https://d13yacurqjgara.cloudfront.net/users/146798/avatars/normal/a1d1a5664926d64d14591bb092417f10.png?1441204660","username":"jucha","twitter_screen_name":"JustasDesign","website_url":"http://www.iconutopia.com","drafted_by_player_id":22917,"shots_count":215,"following_count":857,"created_at":"2012/05/13 16:51:05 -0400"},"created_at":"2015/09/09 03:17:30 -0400"},{"id":2235823,"title":"Agency landing page","description":"\u003cp\u003eThis is a quick landing page I threw together for a marketing agency based in australia. A bit out of my comfort zone, but I'm happy about how it came out.\u003c/p\u003e\n\n\u003cp\u003eFull pixels attached below. What do you think?\u003c/p\u003e","height":600,"width":800,"likes_count":190,"comments_count":14,"rebounds_count":0,"url":"http://dribbble.com/shots/2235823-Agency-landing-page","short_url":"http://drbl.in/pUSF","views_count":2592,"rebound_source_id":null,"image_url":"https://d13yacurqjgara.cloudfront.net/users/244788/screenshots/2235823/ani.gif","image_teaser_url":"https://d13yacurqjgara.cloudfront.net/users/244788/screenshots/2235823/ani_teaser.gif","image_400_url":"https://d13yacurqjgara.cloudfront.net/users/244788/screenshots/2235823/ani_1x.gif","player":{"id":244788,"name":"Patryk Sobczak","location":"Poznań","followers_count":1486,"draftees_count":6,"likes_count":7357,"likes_received_count":4137,"comments_count":918,"comments_received_count":254,"rebounds_count":8,"rebounds_received_count":15,"url":"http://dribbble.com/patryksobczak","avatar_url":"https://d13yacurqjgara.cloudfront.net/users/244788/avatars/normal/fd54d1c83556ae47ed29ce544d573e89.jpg?1430320506","username":"patryksobczak","twitter_screen_name":null,"website_url":"http://tonik.pl","drafted_by_player_id":45787,"shots_count":27,"following_count":1630,"created_at":"2012/11/30 07:20:10 -0500"},"created_at":"2015/09/09 04:20:03 -0400"},{"id":2236326,"title":"Where there's smoke...","description":"\u003cp\u003eLet's just say there's a fire coming - Stay tuned.\u003c/p\u003e","height":600,"width":800,"likes_count":179,"comments_count":13,"rebounds_count":0,"url":"http://dribbble.com/shots/2236326-Where-there-s-smoke","short_url":"http://drbl.in/pVco","views_count":1001,"rebound_source_id":null,"image_url":"https://d13yacurqjgara.cloudfront.net/users/99875/screenshots/2236326/logo-build.gif","image_teaser_url":"https://d13yacurqjgara.cloudfront.net/users/99875/screenshots/2236326/logo-build_teaser.gif","image_400_url":"https://d13yacurqjgara.cloudfront.net/users/99875/screenshots/2236326/logo-build_1x.gif","player":{"id":99875,"name":"R A D I O","location":"Cape Town ","followers_count":12192,"draftees_count":4,"likes_count":614,"likes_received_count":48601,"comments_count":129,"comments_received_count":2227,"rebounds_count":6,"rebounds_received_count":10,"url":"http://dribbble.com/madebyradio","avatar_url":"https://d13yacurqjgara.cloudfront.net/users/99875/avatars/normal/b67a43042c708579043891bfac086046.jpg?1437410213","username":"madebyradio","twitter_screen_name":"madebyradio","website_url":"http://www.madebyradio.com","drafted_by_player_id":196,"shots_count":157,"following_count":739,"created_at":"2012/02/07 01:34:28 -0500"},"created_at":"2015/09/09 10:25:00 -0400"},{"id":2235881,"title":"Church.gif (wip)","description":"\u003cp\u003eJust a quick work in progress shot of a little animation I've been kicking around this morning.\u003c/p\u003e","height":600,"width":800,"likes_count":175,"comments_count":13,"rebounds_count":0,"url":"http://dribbble.com/shots/2235881-Church-gif-wip","short_url":"http://drbl.in/pUTL","views_count":1347,"rebound_source_id":null,"image_url":"https://d13yacurqjgara.cloudfront.net/users/41854/screenshots/2235881/churchwip-d.gif","image_teaser_url":"https://d13yacurqjgara.cloudfront.net/users/41854/screenshots/2235881/churchwip-d_teaser.gif","image_400_url":"https://d13yacurqjgara.cloudfront.net/users/41854/screenshots/2235881/churchwip-d_1x.gif","player":{"id":41854,"name":"Mathew Lucas","location":"Staffordshire","followers_count":2664,"draftees_count":0,"likes_count":10087,"likes_received_count":18202,"comments_count":568,"comments_received_count":1295,"rebounds_count":23,"rebounds_received_count":21,"url":"http://dribbble.com/MathewLucas","avatar_url":"https://d13yacurqjgara.cloudfront.net/users/41854/avatars/normal/a4419f35eccb9090c582fd2960af689d.jpeg?1415013902","username":"MathewLucas","twitter_screen_name":"Mathew_Lucas","website_url":"http://www.89a.co.uk/","drafted_by_player_id":35220,"shots_count":289,"following_count":1558,"created_at":"2011/06/22 12:44:26 -0400"},"created_at":"2015/09/09 05:05:24 -0400"},{"id":2236140,"title":"Design Makes Everything Possible 2","description":"\u003cp\u003eAnother variant I played around with. Didn't make the cut so I kicked it to the curb.\u003c/p\u003e","height":600,"width":800,"likes_count":148,"comments_count":10,"rebounds_count":0,"url":"http://dribbble.com/shots/2236140-Design-Makes-Everything-Possible-2","short_url":"http://drbl.in/pUYK","views_count":719,"rebound_source_id":2234256,"image_url":"https://d13yacurqjgara.cloudfront.net/users/120724/screenshots/2236140/design-makes-everything-possible-2.jpg","image_teaser_url":"https://d13yacurqjgara.cloudfront.net/users/120724/screenshots/2236140/design-makes-everything-possible-2_teaser.jpg","image_400_url":"https://d13yacurqjgara.cloudfront.net/users/120724/screenshots/2236140/design-makes-everything-possible-2_1x.jpg","player":{"id":120724,"name":"Daniel Haire","location":"Atlanta, Georgia","followers_count":3465,"draftees_count":5,"likes_count":2942,"likes_received_count":13907,"comments_count":661,"comments_received_count":874,"rebounds_count":4,"rebounds_received_count":7,"url":"http://dribbble.com/DanielHaire","avatar_url":"https://d13yacurqjgara.cloudfront.net/users/120724/avatars/normal/be11250b7b49b8cc00370e5fa8cc92cc.jpg?1439994908","username":"DanielHaire","twitter_screen_name":"Hairessy","website_url":"http://haire.co","drafted_by_player_id":21651,"shots_count":124,"following_count":657,"created_at":"2012/03/23 19:34:13 -0400"},"created_at":"2015/09/09 08:41:27 -0400"},{"id":2235976,"title":"Property Management - Illustration","description":"\u003cp\u003eThe troubles of property management - an illustration created for a landing page of a secret client who will be going live soon! Keep posted, heaps in the backlog ready to post when he goes live!\u003c/p\u003e\n\n\u003cp\u003eKeen to hear your thoughts and don't forget to \u003cstrong\u003eclick L\u003cstrong\u003e\u003c/strong\u003e\u003c/strong\u003e\u003c/p\u003e","height":600,"width":800,"likes_count":144,"comments_count":10,"rebounds_count":0,"url":"http://dribbble.com/shots/2235976-Property-Management-Illustration","short_url":"http://drbl.in/pUVC","views_count":834,"rebound_source_id":null,"image_url":"https://d13yacurqjgara.cloudfront.net/users/310943/screenshots/2235976/property-management.png","image_teaser_url":"https://d13yacurqjgara.cloudfront.net/users/310943/screenshots/2235976/property-management_teaser.png","image_400_url":"https://d13yacurqjgara.cloudfront.net/users/310943/screenshots/2235976/property-management_1x.png","player":{"id":310943,"name":"Andrew McKay","location":"Sydney, Australia","followers_count":2225,"draftees_count":2,"likes_count":501,"likes_received_count":7711,"comments_count":120,"comments_received_count":391,"rebounds_count":8,"rebounds_received_count":3,"url":"http://dribbble.com/andrewmckay","avatar_url":"https://d13yacurqjgara.cloudfront.net/users/310943/avatars/normal/me.jpg?1377444448","username":"andrewmckay","twitter_screen_name":"andrewmckay89","website_url":"http://linkedin.com/in/andrewmckay899","drafted_by_player_id":24354,"shots_count":40,"following_count":234,"created_at":"2013/04/05 03:40:36 -0400"},"created_at":"2015/09/09 06:28:03 -0400"},{"id":2236053,"title":"Day 073 - Account Settings","description":"\u003cp\u003eWelcome to Daily UI Elements for 100 days straight (including weekends and holidays). \u003c/p\u003e\n\n\u003cp\u003eThis is day 073.\u003c/p\u003e\n\n\u003cp\u003eMy challenge for today is an Account Settings Modal.\u003c/p\u003e\n\n\u003cp\u003eI invite you all to rebound this shot and create your own visual exercise.\u003c/p\u003e\n\n\u003cp\u003eSee you tomorrow!\u003c/p\u003e\n\n\u003cp\u003eCheck out the project website www.100daysui.com . \u003c/p\u003e\n\n\u003cp\u003e#daily100 #day073\u003c/p\u003e\n\n\u003cp\u003e\u003ca href=\"https://twitter.com/npaulflavius\" rel=\"nofollow\"\u003eTwitter\u003c/a\u003e  |  \u003ca href=\"https://instagram.com/paulflavius/\" rel=\"nofollow\"\u003eInstagram\u003c/a\u003e\u003c/p\u003e","height":600,"width":800,"likes_count":135,"comments_count":4,"rebounds_count":1,"url":"http://dribbble.com/shots/2236053-Day-073-Account-Settings","short_url":"http://drbl.in/pUXb","views_count":1552,"rebound_source_id":null,"image_url":"https://d13yacurqjgara.cloudfront.net/users/3587/screenshots/2236053/dribbble_preview.jpg","image_teaser_url":"https://d13yacurqjgara.cloudfront.net/users/3587/screenshots/2236053/dribbble_preview_teaser.jpg","image_400_url":"https://d13yacurqjgara.cloudfront.net/users/3587/screenshots/2236053/dribbble_preview_1x.jpg","player":{"id":3587,"name":"Paul Flavius Nechita ","location":"Bucharest, Romania","followers_count":9016,"draftees_count":22,"likes_count":23773,"likes_received_count":33075,"comments_count":426,"comments_received_count":1755,"rebounds_count":13,"rebounds_received_count":832,"url":"http://dribbble.com/NpaulFlavius","avatar_url":"https://d13yacurqjgara.cloudfront.net/users/3587/avatars/normal/13c6655451b498888639b2f2a8409d4f.jpg?1435957873","username":"NpaulFlavius","twitter_screen_name":"npaulflavius","website_url":"http://www.100daysui.com","drafted_by_player_id":2194,"shots_count":153,"following_count":683,"created_at":"2010/07/27 05:01:36 -0400"},"created_at":"2015/09/09 07:37:35 -0400"},{"id":2236425,"title":"New York Times Cooking.","description":"\u003cp\u003eI made these three illustrations for The New York Times' Cooking website to explain you can save your recipes across the web. You can see how they sit on their website \u003ca href=\"http://cooking.nytimes.com\" rel=\"nofollow\"\u003ehere\u003c/a\u003e.\u003c/p\u003e","height":600,"width":800,"likes_count":118,"comments_count":2,"rebounds_count":0,"url":"http://dribbble.com/shots/2236425-New-York-Times-Cooking","short_url":"http://drbl.in/pVej","views_count":553,"rebound_source_id":null,"image_url":"https://d13yacurqjgara.cloudfront.net/users/2489/screenshots/2236425/ny-times-cooking.png","image_teaser_url":"https://d13yacurqjgara.cloudfront.net/users/2489/screenshots/2236425/ny-times-cooking_teaser.png","image_400_url":"https://d13yacurqjgara.cloudfront.net/users/2489/screenshots/2236425/ny-times-cooking_1x.png","player":{"id":2489,"name":"Tim Boelaars","location":"Amsterdam","followers_count":21673,"draftees_count":14,"likes_count":5300,"likes_received_count":55006,"comments_count":1092,"comments_received_count":3867,"rebounds_count":51,"rebounds_received_count":87,"url":"http://dribbble.com/timboelaars","avatar_url":"https://d13yacurqjgara.cloudfront.net/users/2489/avatars/normal/avatar.jpg?1391435914","username":"timboelaars","twitter_screen_name":"timboelaars","website_url":"http://timboelaars.nl","drafted_by_player_id":1985,"shots_count":263,"following_count":464,"created_at":"2010/06/03 05:08:59 -0400"},"created_at":"2015/09/09 11:05:28 -0400"},{"id":2235702,"title":"Sector9 rhythm","description":"\u003cp\u003eSince the autumn came, rain and colder weather started closing longboarding season. Hope we will have some more bright days to fool around. For now Sector9's Rhythm is my first board I got this summer and I'm more than happy cruising the town around. \u003c/p\u003e\n\n\u003cp\u003eHere's a lil dedication to this bamboo series Rhythm board.\u003c/p\u003e\n\n\u003cp\u003e😎\u003c/p\u003e","height":600,"width":800,"likes_count":121,"comments_count":8,"rebounds_count":1,"url":"http://dribbble.com/shots/2235702-Sector9-rhythm","short_url":"http://drbl.in/pUQo","views_count":1071,"rebound_source_id":null,"image_url":"https://d13yacurqjgara.cloudfront.net/users/22917/screenshots/2235702/rhythm.png","image_teaser_url":"https://d13yacurqjgara.cloudfront.net/users/22917/screenshots/2235702/rhythm_teaser.png","image_400_url":"https://d13yacurqjgara.cloudfront.net/users/22917/screenshots/2235702/rhythm_1x.png","player":{"id":22917,"name":"Deividas Graužinis","location":"Lithuania, Vilnius","followers_count":2636,"draftees_count":6,"likes_count":5027,"likes_received_count":12899,"comments_count":659,"comments_received_count":584,"rebounds_count":55,"rebounds_received_count":60,"url":"http://dribbble.com/Deiv","avatar_url":"https://d13yacurqjgara.cloudfront.net/users/22917/avatars/normal/df5952581d2542a2bb6ec8a321f6f745.png?1441230702","username":"Deiv","twitter_screen_name":"DeivGr","website_url":"http://www.deiv.lt","drafted_by_player_id":5202,"shots_count":127,"following_count":507,"created_at":"2011/03/11 13:13:32 -0500"},"created_at":"2015/09/09 02:52:09 -0400"},{"id":2236129,"title":"Panic Run | ios new game","description":"\u003cp\u003eRun around panicking as obstacles fall from above to hit you!\n\u003cbr /\u003eYour platform will move up and down making it easier or harder to avoid the obstacles as the game progresses! Collect coins to unlock beautiful backgrounds and characters.\u003c/p\u003e\n\n\u003cp\u003e\u003ca href=\"https://itunes.apple.com/us/app/panic-run/id1011011546?ls=1\u0026amp;mt=8\" rel=\"nofollow\"\u003eStart iOS game  \u003c/a\u003e \u003c/p\u003e\n\n\u003cp\u003eIf you like it, please press \"L\" button.\u003c/p\u003e\n\n\u003cp\u003eTo see more of my work:\t\n\u003cbr /\u003e\u003ca href=\"https://www.behance.net/oleg-beresnev\" rel=\"nofollow\"\u003eBehance\u003c/a\u003e | \u003ca href=\"https://instagram.com/olegberesnev/\" rel=\"nofollow\"\u003eInstagram\u003c/a\u003e | \u003ca href=\"https://www.facebook.com/oleg.beresnev\" rel=\"nofollow\"\u003eFacebook\u003c/a\u003e\u003c/p\u003e\n\n\u003cp\u003eThank you for your attention!\n\u003c/p\u003e","height":300,"width":400,"likes_count":118,"comments_count":2,"rebounds_count":0,"url":"http://dribbble.com/shots/2236129-Panic-Run-ios-new-game","short_url":"http://drbl.in/pUYz","views_count":797,"rebound_source_id":null,"image_url":"https://d13yacurqjgara.cloudfront.net/users/256781/screenshots/2236129/fat-is-dead-2.gif","image_teaser_url":"https://d13yacurqjgara.cloudfront.net/users/256781/screenshots/2236129/fat-is-dead-2_teaser.gif","player":{"id":256781,"name":"Beresnev","location":"New York","followers_count":4619,"draftees_count":5,"likes_count":782,"likes_received_count":15408,"comments_count":232,"comments_received_count":798,"rebounds_count":10,"rebounds_received_count":19,"url":"http://dribbble.com/Beresnev","avatar_url":"https://d13yacurqjgara.cloudfront.net/users/256781/avatars/normal/7976e4b08cd5489f19f89b27b11e3f31.jpg?1411369735","username":"Beresnev","twitter_screen_name":null,"website_url":"http://olegberesnev.com/","drafted_by_player_id":113780,"shots_count":72,"following_count":121,"created_at":"2012/12/28 07:12:41 -0500"},"created_at":"2015/09/09 08:36:41 -0400"},{"id":2236296,"title":"Feelastic Switch","description":"\u003cp\u003eWas really interesting to work on this animation. I tried to make the icon transition as smooth as possible. Stay tuned for more.\u003c/p\u003e\n\n\u003cp\u003eHope you like it bros! Press \"L\" on your keyboard if you do, and follow me if you don't want to miss some upcoming work.\u003c/p\u003e\n\n\u003cp\u003e\u003ca href=\"https://dribbble.com/aureliensalomon/projects\" rel=\"nofollow\"\u003eMy projects\u003c/a\u003e\u003c/p\u003e\n\n\u003cp\u003eHave a glossy day and take care,\u003c/p\u003e\n\n\u003cp\u003e\u003cstrong\u003e\u003ca href=\"https://twitter.com/aureliensalomon\" rel=\"nofollow\"\u003eTwitter\u003c/a\u003e\u003c/strong\u003e | \u003cstrong\u003e\u003ca href=\"https://www.behance.net/aureliensalomon\" rel=\"nofollow\"\u003eBehance\u003c/a\u003e\u003c/strong\u003e | \u003cstrong\u003e\u003ca href=\"http://www.linkedin.com/profile/view?id=245944877\u0026amp;trk=nav_responsive_tab_profile_pic%0A\" rel=\"nofollow\"\u003eLinkedIn\u003c/a\u003e\u003c/strong\u003e\u003c/p\u003e","height":600,"width":800,"likes_count":117,"comments_count":9,"rebounds_count":0,"url":"http://dribbble.com/shots/2236296-Feelastic-Switch","short_url":"http://drbl.in/pVbK","views_count":946,"rebound_source_id":2230991,"image_url":"https://d13yacurqjgara.cloudfront.net/users/30252/screenshots/2236296/freelastic_-_switch.gif","image_teaser_url":"https://d13yacurqjgara.cloudfront.net/users/30252/screenshots/2236296/freelastic_-_switch_teaser.gif","image_400_url":"https://d13yacurqjgara.cloudfront.net/users/30252/screenshots/2236296/freelastic_-_switch_1x.gif","player":{"id":30252,"name":"Aurélien Salomon 💠","location":"Montréal","followers_count":7180,"draftees_count":3,"likes_count":1378,"likes_received_count":27036,"comments_count":1541,"comments_received_count":1284,"rebounds_count":44,"rebounds_received_count":46,"url":"http://dribbble.com/aureliensalomon","avatar_url":"https://d13yacurqjgara.cloudfront.net/users/30252/avatars/normal/a8b7eb3a7c2e5a535337f44fa0bda235.png?1421609695","username":"aureliensalomon","twitter_screen_name":"aureliensalomon","website_url":"http://www.behance.net/aureliensalomon","drafted_by_player_id":184736,"shots_count":79,"following_count":1635,"created_at":"2011/04/23 16:30:09 -0400"},"created_at":"2015/09/09 10:06:47 -0400"},{"id":2235811,"title":"C for Connect","description":"\u003cp\u003e\u003cstrong\u003eExplorations for an ongoing project.\u003c/strong\u003e \u003c/p\u003e\n\n\u003cp\u003eOpen for feedback, \u003c/p\u003e","height":600,"width":800,"likes_count":116,"comments_count":8,"rebounds_count":0,"url":"http://dribbble.com/shots/2235811-C-for-Connect","short_url":"http://drbl.in/pUSt","views_count":1059,"rebound_source_id":2233032,"image_url":"https://d13yacurqjgara.cloudfront.net/users/78433/screenshots/2235811/marks.png","image_teaser_url":"https://d13yacurqjgara.cloudfront.net/users/78433/screenshots/2235811/marks_teaser.png","image_400_url":"https://d13yacurqjgara.cloudfront.net/users/78433/screenshots/2235811/marks_1x.png","player":{"id":78433,"name":"Jeroen van Eerden","location":"Netherlands, Groningen","followers_count":4975,"draftees_count":6,"likes_count":12481,"likes_received_count":30749,"comments_count":2989,"comments_received_count":3545,"rebounds_count":159,"rebounds_received_count":164,"url":"http://dribbble.com/jeroenvaneerden","avatar_url":"https://d13yacurqjgara.cloudfront.net/users/78433/avatars/normal/2189a2b54f1301e19ab654e12362e17c.jpg?1435223902","username":"jeroenvaneerden","twitter_screen_name":"jeroenvaneerden","website_url":"http://www.jeroenvaneerden.nl","drafted_by_player_id":13604,"shots_count":390,"following_count":685,"created_at":"2011/11/24 11:08:56 -0500"},"created_at":"2015/09/09 04:09:49 -0400"},{"id":2235775,"title":"Las Vegas","description":"\u003cp\u003eA lot of isometric stuff going on in our studio lately. We don't mind though.\u003c/p\u003e","height":600,"width":800,"likes_count":116,"comments_count":8,"rebounds_count":0,"url":"http://dribbble.com/shots/2235775-Las-Vegas","short_url":"http://drbl.in/pURJ","views_count":739,"rebound_source_id":null,"image_url":"https://d13yacurqjgara.cloudfront.net/users/101577/screenshots/2235775/las_vegas.png","image_teaser_url":"https://d13yacurqjgara.cloudfront.net/users/101577/screenshots/2235775/las_vegas_teaser.png","image_400_url":"https://d13yacurqjgara.cloudfront.net/users/101577/screenshots/2235775/las_vegas_1x.png","player":{"id":101577,"name":"Patswerk","location":"The Hague, the Netherlands","followers_count":2686,"draftees_count":2,"likes_count":547,"likes_received_count":8483,"comments_count":97,"comments_received_count":427,"rebounds_count":14,"rebounds_received_count":16,"url":"http://dribbble.com/Patswerk","avatar_url":"https://d13yacurqjgara.cloudfront.net/users/101577/avatars/original/logo3.jpg?1328953005","username":"Patswerk","twitter_screen_name":"Patswerk","website_url":"http://www.patswerk.nl","drafted_by_player_id":39,"shots_count":103,"following_count":222,"created_at":"2012/02/11 04:24:38 -0500"},"created_at":"2015/09/09 03:51:51 -0400"}]}
